
[
      {
        "id": "1",
        "name": "GDM LoaderUI",
        "appUrl": "http://gobiin1.bti.cornell.edu:6083/projects/LUG/repos/loaderui/raw/distribution/windows/distribution.zip?at=refs%2Fheads%2Frelease%2F2.0",
        "description": "GDM LoaderUI is a data loading and curation tool",
        "imgUrl": "./../assets/loader-ui.png",
        "permission": "User",
        "version": "v0.0.1"
      },
      {
        "id": "2",
        "name": "Flapjack",
        "appUrl": "https://ics.hutton.ac.uk/flapjack/download-flapjack/",
        "description": "Flapjack provides advanced graphical genotype visualization and analysis for allele-based data sets",
        "imgUrl": "./../assets/flapjack.png",
        "permission": "Curator",
        "version": "v0.0.1"
      },
      {
        "id": "3",
        "name": "TASSEL",
        "appUrl": "https://www.maizegenetics.net/tassel",
        "description": "TASSEL is a software package to evaluate traits associations, evolutionary patterns, and linkage disequilibrium",
        "imgUrl": "./../assets/tassel.png",
        "permission": "User",
        "version": "v0.0.1"
      }
]
